[22:27:37.250] The Forgotten Server, version 0.4_DEV ()
[22:27:37.250] Compiled with GNU C++ version 4.6.3 at Aug  1 2016, 23:43:03.
[22:27:37.250] A server developed by Elf, Talaturen, KaczooH, Stian and Kornholijo.
[22:27:37.250] Visit our forum for updates, support and resources: http://otland.net.

[22:27:37.250] >> Loading config (config.lua)
[22:27:37.250] >> Opening logs
[22:27:37.254] > Using SHA1 encryption
[22:27:37.472] >> Checking software version...failed checking - malformed file.
[22:27:37.472] >> Loading RSA key
[22:27:37.473] >> Starting SQL connection
[22:27:37.474] >> Running Database Manager
[22:27:37.506] > Optimizing table: account_viplist... [success]
[22:27:37.510] > Optimizing table: accounts... [success]
[22:27:37.513] > Optimizing table: bans... [success]
[22:27:37.515] > Optimizing table: environment_killers... [success]
[22:27:37.518] > Optimizing table: global_storage... [success]
[22:27:37.521] > Optimizing table: guild_invites... [success]
[22:27:37.524] > Optimizing table: guild_kills... [success]
[22:27:37.526] > Optimizing table: guild_ranks... [success]
[22:27:37.529] > Optimizing table: guild_wars... [success]
[22:27:37.532] > Optimizing table: guilds... [success]
[22:27:37.534] > Optimizing table: house_auctions... [success]
[22:27:37.537] > Optimizing table: house_data... [success]
[22:27:37.540] > Optimizing table: house_lists... [success]
[22:27:37.548] > Optimizing table: houses... [success]
[22:27:37.551] > Optimizing table: killers... [success]
[22:27:37.554] > Optimizing table: login_history... [success]
[22:27:37.557] > Optimizing table: market_history... [success]
[22:27:37.560] > Optimizing table: market_offers... [success]
[22:27:37.562] > Optimizing table: player_advances... [success]
[22:27:37.565] > Optimizing table: player_deaths... [success]
[22:27:37.568] > Optimizing table: player_depotitems... [success]
[22:27:37.570] > Optimizing table: player_inboxitems... [success]
[22:27:37.574] > Optimizing table: player_items... [success]
[22:27:37.576] > Optimizing table: player_killers... [success]
[22:27:37.578] > Optimizing table: player_namelocks... [success]
[22:27:37.582] > Optimizing table: player_skills... [success]
[22:27:37.584] > Optimizing table: player_spells... [success]
[22:27:37.587] > Optimizing table: player_statements... [success]
[22:27:37.590] > Optimizing table: player_storage... [success]
[22:27:37.593] > Optimizing table: player_viplist... [success]
[22:27:37.598] > Optimizing table: players... [success]
[22:27:37.600] > Optimizing table: server_config... [success]
[22:27:37.603] > Optimizing table: server_motd... [success]
[22:27:37.606] > Optimizing table: server_record... [success]
[22:27:37.609] > Optimizing table: server_reports... [success]
[22:27:37.612] > Optimizing table: tile_items... [success]
[22:27:37.618] > Optimizing table: tile_store... [success]
[22:27:37.639] > Optimizing table: tiles... [success]
[22:27:37.642] > Optimizing table: z_changelog... [success]
[22:27:37.642] >> Loading items (OTB)
[22:27:37.713] >> Loading items (XML)
[22:27:37.774] >> Loading groups
[22:27:37.784] >> Loading vocations
[22:27:37.785] >> Loading outfits
[22:27:37.786] >> Loading chat channels
[22:27:37.786] >> Loading script systems
[22:27:37.818] [Warning - ConjureSpell::loadFunction] Function "conjureFood" does not exist.
[22:27:37.882] >> Loading mods...
[22:27:37.882] > Loading firstitems.xml... done.
[22:27:37.882] > 1 mods were loaded.
[22:27:37.882] >> Loading experience stages
[22:27:37.882] >> Loading monsters
[22:27:37.969] >> Loading map and spawns...
[22:27:38.273] > Map size: 2048x2048.
[22:27:38.273] > Map descriptions: 
[22:27:38.273] "Saved with Remere's Map Editor 2.1"
[22:27:38.273] "Mapa zrobiona przez Choconator - otland.net masz jakis problem - napisz GG: 12440970
[22:27:38.273] Map made by Choconator - otland.net"
[22:27:41.372] > Map loading time: 3.403 seconds.
[Warning] NpcSystem:
Parameter(s) missing for item:
500


[Warning] NpcSystem:
Parameter(s) missing for item:
500


[Warning] NpcSystem:
Parameter(s) missing for item:
500


[Warning] NpcSystem:
Parameter(s) missing for item:
500


[22:27:41.589] > Data parsing time: 0.217 seconds.
[22:27:41.657] > Houses synchronization time: 0.068 seconds.
[22:27:42.373] > Content unserialization time: 0.716 seconds.
[22:27:42.373] >> Checking world type... Open PvP
[22:27:42.373] >> Initializing game state and binding services...
[22:27:42.411] > Global IP address: 144.217.19.138
[22:27:42.412] > Bound ports: 7171	7172	
[22:27:42.412] >> Everything smells good, server is starting up...
[22:27:42.412] >> Evolera server Online!

[22:28:04.241] Account Manager has logged in.
[22:28:05.836] Account Manager has logged out.
[22:32:43.504] GOD has logged in.
[22:44:18.144] GOD has logged out.
[22:44:19.948] Account Manager has logged in.
[22:44:21.186] Account Manager has logged out.
[22:44:27.642] Mina Doida has logged in.

[23:29:36.905] [Error - GlobalEvent Interface] 
[23:29:36.905] data/globalevents/scripts/record.lua:onRecord
[23:29:36.905] Description: 
[23:29:36.905] data/globalevents/scripts/record.lua:2: attempt to call field 'executeQuery' (a nil value)
[23:29:36.905] stack traceback:
[23:29:36.905] 	data/globalevents/scripts/record.lua:2: in function <data/globalevents/scripts/record.lua:1>
[23:29:36.906] Account Manager has logged in.
[23:30:37.191] Account Manager has logged out.
[23:59:31.602] Mina Doida has logged out.
[23:59:38.152] Dida has logged in.
[0:1:01.762] Dida has logged out.
[0:1:11.043] Tirso has logged in.
[0:1:36.163] Tirso has logged out.
[0:1:52.647] GOD has logged in.
[0:15:39.870] Nao Da Cria Um Nick has logged in.
> GOD broadcasted message: "MONTE NEGRO".


> Broadcasted message: "[Event Stones]
 Icy Stone have been spawn. Find and defeat it!".
[0:25:27.832] Nao Da Cria Um Nick has logged out.
[0:26:34.549] > Saving server...
[0:26:34.657] > SAVE: Complete in 0.108 seconds using relational house storage.
[0:27:07.485] > Loading firstitems.xml... done.
[0:27:07.485] > 1 mods were loaded.
[0:31:59.373] GOD has logged out.
[0:32:00.952] GOD has logged in.
[0:32:04.718] GOD has logged out.
[0:32:08.894] GOD has logged in.

[1:4:02.242] [Error - Action Interface] 
[1:4:02.242] data/actions/scripts/other/sms.lua:onUse
[1:4:02.242] Description: 
[1:4:02.242] data/actions/scripts/other/sms.lua:2: attempt to call field 'executeQuery' (a nil value)
[1:4:02.242] stack traceback:
[1:4:02.242] 	data/actions/scripts/other/sms.lua:2: in function 'doPlayerAddPremiumPoints'
[1:4:02.242] 	data/actions/scripts/other/sms.lua:6: in function <data/actions/scripts/other/sms.lua:5>

[1:4:08.539] [Error - Action Interface] 
[1:4:08.539] data/actions/scripts/other/sms.lua:onUse
[1:4:08.539] Description: 
[1:4:08.539] data/actions/scripts/other/sms.lua:2: attempt to call field 'executeQuery' (a nil value)
[1:4:08.539] stack traceback:
[1:4:08.539] 	data/actions/scripts/other/sms.lua:2: in function 'doPlayerAddPremiumPoints'
[1:4:08.539] 	data/actions/scripts/other/sms.lua:6: in function <data/actions/scripts/other/sms.lua:5>
